<svg width="71" height="77" viewBox="0 0 71 77" fill="none" xmlns="http://www.w3.org/2000/svg">
<path opacity="0.253397" fill-rule="evenodd" clip-rule="evenodd" d="M12.8671 54.5603C12.8671 54.5603 13.218 52.6221 14.5978 57.1798C15.9777 61.7375 31.5803 71.7127 36.8031 63.6341C42.0259 55.5556 49.4099 64.6208 54.5106 62.1962C59.6113 59.7717 60.4192 56.5719 56.6173 48.8618C52.8154 41.1517 62.1676 31.7566 52.8451 25.7165C43.5227 19.6764 50.7398 21.1603 50.7398 21.1603L50.6922 45.82L38.2133 57.1335L12.8671 54.5603Z" fill="url(#paint0_linear_188_2269)"/>
<path opacity="0.518059" fill-rule="evenodd" clip-rule="evenodd" d="M49.8662 30.5585C49.8662 30.5585 48.7822 30.4955 51.1826 29.4203C53.583 28.3451 57.989 19.0099 53.2175 16.6606C48.4461 14.3113 52.9079 9.59835 51.2379 6.93277C49.5678 4.26719 47.7629 4.03623 43.8011 6.66954C39.8392 9.30285 32.1961 2.26954 29.5198 7.85263C26.8436 13.4357 31.3895 6.65724 31.3895 6.65724L42.5362 10.1639L49.5662 16.3197L49.8662 30.5585Z" fill="url(#paint1_linear_188_2269)"/>
<circle cx="27.9115" cy="33.1867" r="22.5539" stroke="#0EABBC" stroke-width="10"/>
<path d="M26.3849 10.6845C30.4261 10.4104 34.4666 11.2296 38.0819 13.0561C41.6972 14.8826 44.7539 17.649 46.9309 21.0647C49.1079 24.4805 50.3248 28.4194 50.454 32.4678C50.5831 36.5163 49.6195 40.5248 47.6646 44.0722C45.7097 47.6197 42.8354 50.5753 39.3439 52.6285C35.8523 54.6816 31.8723 55.7566 27.8218 55.7405C23.7714 55.7244 19.8 54.6178 16.3249 52.5369C12.8497 50.4561 9.99912 47.4778 8.07244 43.9149" stroke="url(#paint2_linear_188_2269)" stroke-width="10" stroke-linecap="round"/>
<defs>
<linearGradient id="paint0_linear_188_2269" x1="14.7484" y1="31.1673" x2="87.8567" y2="58.1979" gradientUnits="userSpaceOnUse">
<stop stop-color="#0EABBC"/>
<stop offset="1" stop-color="#1AB0C0"/>
</linearGradient>
<linearGradient id="paint1_linear_188_2269" x1="36.461" y1="30.9739" x2="46.6547" y2="-11.3497" gradientUnits="userSpaceOnUse">
<stop stop-color="#0EABBC"/>
<stop offset="1" stop-color="#1AB0C0"/>
</linearGradient>
<linearGradient id="paint2_linear_188_2269" x1="30.6669" y1="-3.04157" x2="33.776" y2="94.5808" gradientUnits="userSpaceOnUse">
<stop stop-color="#0EABBC"/>
<stop offset="1" stop-color="#085C65"/>
</linearGradient>
</defs>
</svg>
